<?xml version="1.0" encoding="utf-8"?>
<!-- Generator: Adobe Illustrator 19.2.1, SVG Export Plug-In . SVG Version: 6.00 Build 0)  -->
<svg version="1.1" id="レイヤー_1" xmlns="http://www.w3.org/2000/svg" xmlns:xlink="http://www.w3.org/1999/xlink" x="0px"
	 y="0px" viewBox="0 0 200 200" style="enable-background:new 0 0 200 200;" xml:space="preserve">
<style type="text/css">
	.st0{opacity:0.5;fill:#FFFFFF;fill-opacity:0.4;stroke:#666666;stroke-miterlimit:10;}
	.st1{opacity:0.5;fill:#999999;enable-background:new    ;}
	.st2{font-family:'HelveticaNeue-CondensedBold';}
	.st3{font-size:112.9852px;}
</style>
<circle class="st0" cx="100" cy="100" r="94"/>
<text transform="matrix(1 0 0 1 72.8839 138.9417)" class="st1 st2 st3">2</text>
</svg>
